## Autogenerated by Scribe. DO NOT MODIFY.

name: Endpoints
description: ''
endpoints:
  -
    custom: []
    httpMethods:
      - GET
    uri: api/user
    metadata:
      custom: []
      groupName: Endpoints
      groupDescription: ''
      subgroup: ''
      subgroupDescription: ''
      title: ''
      description: ''
      authenticated: false
      deprecated: false
    headers:
      Content-Type: application/json
      Accept: application/json
    urlParameters: []
    cleanUrlParameters: []
    queryParameters: []
    cleanQueryParameters: []
    bodyParameters: []
    cleanBodyParameters: []
    fileParameters: []
    responses:
      -
        custom: []
        status: 401
        content: '{"message":"Unauthenticated."}'
        headers:
          cache-control: 'no-cache, private'
          content-type: application/json
          access-control-allow-origin: '*'
        description: null
    responseFields: []
    auth: []
    controller: null
    method: null
    route: null
  -
    custom: []
    httpMethods:
      - GET
    uri: api/get_data
    metadata:
      custom: []
      groupName: Endpoints
      groupDescription: ''
      subgroup: ''
      subgroupDescription: ''
      title: ''
      description: ''
      authenticated: false
      deprecated: false
    headers:
      Content-Type: application/json
      Accept: application/json
    urlParameters: []
    cleanUrlParameters: []
    queryParameters: []
    cleanQueryParameters: []
    bodyParameters: []
    cleanBodyParameters: []
    fileParameters: []
    responses:
      -
        custom: []
        status: 200
        content: '[{"id":1,"name":"Rent","icon":null,"icon_path":"\/storage\/listing_types\/rent.png"},{"id":2,"name":"Sell","icon":null,"icon_path":"\/storage\/listing_types\/sell.png"},{"id":3,"name":"Exchange","icon":null,"icon_path":"\/storage\/listing_types\/exchange.png"}]'
        headers:
          cache-control: 'no-cache, private'
          content-type: application/json
          access-control-allow-origin: '*'
        description: null
    responseFields: []
    auth: []
    controller: null
    method: null
    route: null
  -
    custom: []
    httpMethods:
      - POST
    uri: api/auth/login
    metadata:
      custom: []
      groupName: Endpoints
      groupDescription: ''
      subgroup: ''
      subgroupDescription: ''
      title: ''
      description: ''
      authenticated: false
      deprecated: false
    headers:
      Content-Type: application/json
      Accept: application/json
    urlParameters: []
    cleanUrlParameters: []
    queryParameters: []
    cleanQueryParameters: []
    bodyParameters:
      phone:
        custom: []
        name: phone
        description: 'Must be at least 9 characters. Must not be greater than 15 characters.'
        required: true
        example: vmqeopfuudtds
        type: string
        enumValues: []
        exampleWasSpecified: false
        nullable: false
        deprecated: false
    cleanBodyParameters:
      phone: vmqeopfuudtds
    fileParameters: []
    responses: []
    responseFields: []
    auth: []
    controller: null
    method: null
    route: null
  -
    custom: []
    httpMethods:
      - POST
    uri: api/auth/valid-otp
    metadata:
      custom: []
      groupName: Endpoints
      groupDescription: ''
      subgroup: ''
      subgroupDescription: ''
      title: ''
      description: ''
      authenticated: false
      deprecated: false
    headers:
      Content-Type: application/json
      Accept: application/json
    urlParameters: []
    cleanUrlParameters: []
    queryParameters: []
    cleanQueryParameters: []
    bodyParameters:
      phone:
        custom: []
        name: phone
        description: ''
        required: true
        example: consequatur
        type: string
        enumValues: []
        exampleWasSpecified: false
        nullable: false
        deprecated: false
      otp_code:
        custom: []
        name: otp_code
        description: 'Must be 6 digits.'
        required: true
        example: '810798'
        type: string
        enumValues: []
        exampleWasSpecified: false
        nullable: false
        deprecated: false
    cleanBodyParameters:
      phone: consequatur
      otp_code: '810798'
    fileParameters: []
    responses: []
    responseFields: []
    auth: []
    controller: null
    method: null
    route: null
  -
    custom: []
    httpMethods:
      - POST
    uri: api/auth/fill-name
    metadata:
      custom: []
      groupName: Endpoints
      groupDescription: ''
      subgroup: ''
      subgroupDescription: ''
      title: ''
      description: ''
      authenticated: false
      deprecated: false
    headers:
      Content-Type: application/json
      Accept: application/json
    urlParameters: []
    cleanUrlParameters: []
    queryParameters: []
    cleanQueryParameters: []
    bodyParameters:
      name:
        custom: []
        name: name
        description: 'Must be at least 2 characters. Must not be greater than 100 characters.'
        required: true
        example: vmqeopfuudtdsufvyvddq
        type: string
        enumValues: []
        exampleWasSpecified: false
        nullable: false
        deprecated: false
    cleanBodyParameters:
      name: vmqeopfuudtdsufvyvddq
    fileParameters: []
    responses: []
    responseFields: []
    auth: []
    controller: null
    method: null
    route: null
  -
    custom: []
    httpMethods:
      - GET
    uri: api/listings
    metadata:
      custom: []
      groupName: Endpoints
      groupDescription: ''
      subgroup: ''
      subgroupDescription: ''
      title: ''
      description: ''
      authenticated: false
      deprecated: false
    headers:
      Content-Type: application/json
      Accept: application/json
    urlParameters: []
    cleanUrlParameters: []
    queryParameters: []
    cleanQueryParameters: []
    bodyParameters: []
    cleanBodyParameters: []
    fileParameters: []
    responses:
      -
        custom: []
        status: 200
        content: '{"success":true,"message":"Data retrieved successfully","data":{"listing":[{"id":1,"title":"\u0634\u0642\u0629 \u0639\u0635\u0631\u064a\u0629 \u0641\u064a \u0648\u0633\u0637 \u0627\u0644\u0645\u062f\u064a\u0646\u0629","description":"\u0634\u0642\u0629 \u062c\u0645\u064a\u0644\u0629 \u0648\u0645\u062c\u0647\u0632\u0629 \u0628\u0627\u0644\u0643\u0627\u0645\u0644 \u062a\u0642\u0639 \u0641\u064a \u0642\u0644\u0628 \u0627\u0644\u0645\u062f\u064a\u0646\u0629\u060c \u0642\u0631\u064a\u0628\u0629 \u0645\u0646 \u062c\u0645\u064a\u0639 \u0627\u0644\u0645\u0631\u0627\u0641\u0642 \u0645\u062b\u0644 \u0627\u0644\u0645\u062d\u0644\u0627\u062a \u0627\u0644\u062a\u062c\u0627\u0631\u064a\u0629 \u0648\u0648\u0633\u0627\u0626\u0644 \u0627\u0644\u0646\u0642\u0644. \u0645\u0646\u0627\u0633\u0628\u0629 \u0644\u0644\u0639\u0627\u0626\u0644\u0627\u062a \u0623\u0648 \u0627\u0644\u0623\u0632\u0648\u0627\u062c.","price":"45000.00","floor":3,"surface":"95.00","min_duration":6,"number_rooms":3,"number_persons":5,"is_ready":true,"is_negotiable":false,"boost_level":1,"moderation_status":"approved","image":"listings\/img-1.jpg","rent_duration":{"id":1,"name":"Day","icon":null,"icon_path":null},"categories":[{"id":1,"name":"Apartment","icon":null,"icon_path":"\/storage\/category_listings\/apartment.png"}],"features":[{"id":1,"name":"TV","icon":null,"icon_path":"\/storage\/featured_listings\/tv.png"},{"id":2,"name":"Pool","icon":null,"icon_path":"\/storage\/featured_listings\/pool.png"}],"near_places":[{"id":1,"name":"Mosque","icon":null,"icon_path":"\/storage\/near_places\/mosque.png"}],"time_post":"2026-03-02T15:37:31.000000Z"},{"id":2,"title":"\u0641\u064a\u0644\u0627 \u0641\u0627\u062e\u0631\u0629 \u0645\u0639 \u0645\u0633\u0628\u062d \u062e\u0627\u0635","description":"\u0641\u064a\u0644\u0627 \u0631\u0627\u0642\u064a\u0629 \u062a\u062d\u062a\u0648\u064a \u0639\u0644\u0649 \u0645\u0633\u0628\u062d \u062e\u0627\u0635 \u0648\u062d\u062f\u064a\u0642\u0629 \u0648\u0627\u0633\u0639\u0629\u060c \u062a\u0642\u0639 \u0641\u064a \u062d\u064a \u0647\u0627\u062f\u0626 \u0648\u0622\u0645\u0646. \u0645\u062b\u0627\u0644\u064a\u0629 \u0644\u0644\u0639\u0627\u0626\u0644\u0627\u062a \u0627\u0644\u0643\u0628\u064a\u0631\u0629.","price":"180000.00","floor":1,"surface":"320.00","min_duration":12,"number_rooms":6,"number_persons":10,"is_ready":true,"is_negotiable":false,"boost_level":1,"moderation_status":"approved","image":"listings\/img-2.jpg","rent_duration":{"id":1,"name":"Day","icon":null,"icon_path":null},"categories":[{"id":1,"name":"Apartment","icon":null,"icon_path":"\/storage\/category_listings\/apartment.png"}],"features":[{"id":1,"name":"TV","icon":null,"icon_path":"\/storage\/featured_listings\/tv.png"},{"id":2,"name":"Pool","icon":null,"icon_path":"\/storage\/featured_listings\/pool.png"}],"near_places":[{"id":1,"name":"Mosque","icon":null,"icon_path":"\/storage\/near_places\/mosque.png"}],"time_post":"2026-03-02T15:37:31.000000Z"},{"id":3,"title":"\u0627\u0633\u062a\u0648\u062f\u064a\u0648 \u0645\u0641\u0631\u0648\u0634 \u0628\u0627\u0644\u0642\u0631\u0628 \u0645\u0646 \u0627\u0644\u062c\u0627\u0645\u0639\u0629","description":"\u0627\u0633\u062a\u0648\u062f\u064a\u0648 \u0635\u063a\u064a\u0631 \u0648\u0645\u0631\u064a\u062d \u0645\u0641\u0631\u0648\u0634 \u0628\u0627\u0644\u0643\u0627\u0645\u0644\u060c \u0642\u0631\u064a\u0628 \u062c\u062f\u0627\u064b \u0645\u0646 \u0627\u0644\u062c\u0627\u0645\u0639\u0629 \u0648\u0648\u0633\u0627\u0626\u0644 \u0627\u0644\u0646\u0642\u0644. \u0645\u0646\u0627\u0633\u0628 \u0644\u0644\u0637\u0644\u0628\u0629.","price":"25000.00","floor":2,"surface":"45.00","min_duration":3,"number_rooms":1,"number_persons":2,"is_ready":true,"is_negotiable":false,"boost_level":1,"moderation_status":"approved","image":"listings\/img-3.jpg","rent_duration":{"id":1,"name":"Day","icon":null,"icon_path":null},"categories":[{"id":1,"name":"Apartment","icon":null,"icon_path":"\/storage\/category_listings\/apartment.png"}],"features":[{"id":1,"name":"TV","icon":null,"icon_path":"\/storage\/featured_listings\/tv.png"},{"id":2,"name":"Pool","icon":null,"icon_path":"\/storage\/featured_listings\/pool.png"}],"near_places":[{"id":1,"name":"Mosque","icon":null,"icon_path":"\/storage\/near_places\/mosque.png"}],"time_post":"2026-03-02T15:37:31.000000Z"},{"id":4,"title":"\u0645\u0646\u0632\u0644 \u0639\u0627\u0626\u0644\u064a \u0648\u0627\u0633\u0639 \u0641\u064a \u062d\u064a \u0647\u0627\u062f\u0626","description":"\u0645\u0646\u0632\u0644 \u0639\u0627\u0626\u0644\u064a \u0628\u0645\u0633\u0627\u062d\u0629 \u0643\u0628\u064a\u0631\u0629 \u064a\u062d\u062a\u0648\u064a \u0639\u0644\u0649 \u062d\u062f\u064a\u0642\u0629 \u0648\u0645\u0648\u0642\u0641 \u0633\u064a\u0627\u0631\u0627\u062a\u060c \u064a\u0642\u0639 \u0641\u064a \u062d\u064a \u0633\u0643\u0646\u064a \u0647\u0627\u062f\u0626 \u0648\u0622\u0645\u0646.","price":"90000.00","floor":2,"surface":"210.00","min_duration":12,"number_rooms":5,"number_persons":8,"is_ready":true,"is_negotiable":false,"boost_level":1,"moderation_status":"approved","image":"listings\/img-4.jpg","rent_duration":{"id":1,"name":"Day","icon":null,"icon_path":null},"categories":[{"id":1,"name":"Apartment","icon":null,"icon_path":"\/storage\/category_listings\/apartment.png"}],"features":[{"id":1,"name":"TV","icon":null,"icon_path":"\/storage\/featured_listings\/tv.png"},{"id":2,"name":"Pool","icon":null,"icon_path":"\/storage\/featured_listings\/pool.png"}],"near_places":[{"id":1,"name":"Mosque","icon":null,"icon_path":"\/storage\/near_places\/mosque.png"}],"time_post":"2026-03-02T15:37:31.000000Z"}],"pagination":{"total":5,"count":4,"per_page":4,"current_page":1,"total_pages":2,"has_pages":true,"has_more_pages":true,"first_page_url":"http:\/\/localhost\/api\/listings?page=1","last_page_url":"http:\/\/localhost\/api\/listings?page=2","next_page_url":"http:\/\/localhost\/api\/listings?page=2","prev_page_url":null,"from":1,"to":4,"path":"http:\/\/localhost\/api\/listings","current_page_url":"http:\/\/localhost\/api\/listings?page=1"}}}'
        headers:
          cache-control: 'no-cache, private'
          content-type: application/json
          access-control-allow-origin: '*'
        description: null
    responseFields: []
    auth: []
    controller: null
    method: null
    route: null
